D:\Projects\Deafmute BackEnd\Deafmute Workspace\my-deafmute-application\src\main\java\com\javahelps\restservice\controller\PersonController.java
D:\Projects\Deafmute BackEnd\Deafmute Workspace\my-deafmute-application\src\main\java\com\javahelps\restservice\config\SecurityConfig.java
D:\Projects\Deafmute BackEnd\Deafmute Workspace\my-deafmute-application\src\main\java\com\javahelps\restservice\entity\Person.java
D:\Projects\Deafmute BackEnd\Deafmute Workspace\my-deafmute-application\src\main\java\com\javahelps\restservice\config\RequestFilter.java
D:\Projects\Deafmute BackEnd\Deafmute Workspace\my-deafmute-application\src\main\java\com\javahelps\restservice\repository\UserRepository.java
D:\Projects\Deafmute BackEnd\Deafmute Workspace\my-deafmute-application\src\main\java\com\javahelps\restservice\Application.java
